^C:\USERS\ZANTA\DESKTOP\COLLEGE\C++\CLASSES\CLASSES\CLASSES.CPP|C:\USERS\ZANTA\DESKTOP\COLLEGE\C++\CLASSES\CLASSES\DAYTYPE.CPP
C:\USERS\ZANTA\DESKTOP\COLLEGE\C++\CLASSES\CLASSES\DEBUG\VC142.PDB
C:\USERS\ZANTA\DESKTOP\COLLEGE\C++\CLASSES\CLASSES\DEBUG\VC142.IDB
C:\USERS\ZANTA\DESKTOP\COLLEGE\C++\CLASSES\CLASSES\DEBUG\DAYTYPE.OBJ
C:\USERS\ZANTA\DESKTOP\COLLEGE\C++\CLASSES\CLASSES\DEBUG\CLASSES.OBJ
^C:\USERS\ZANTA\DESKTOP\COLLEGE\C++\CLASSES\CLASSES\DAYTYPE.CPP
C:\USERS\ZANTA\DESKTOP\COLLEGE\C++\CLASSES\CLASSES\DEBUG\VC142.PDB
^C:\USERS\ZANTA\DESKTOP\COLLEGE\C++\CLASSES\CLASSES\CLASSES.CPP|C:\USERS\ZANTA\DESKTOP\COLLEGE\C++\CLASSES\CLASSES\CLOCKTYPE.CPP
C:\USERS\ZANTA\DESKTOP\COLLEGE\C++\CLASSES\CLASSES\DEBUG\VC142.PDB
C:\USERS\ZANTA\DESKTOP\COLLEGE\C++\CLASSES\CLASSES\DEBUG\VC142.IDB
C:\USERS\ZANTA\DESKTOP\COLLEGE\C++\CLASSES\CLASSES\DEBUG\CLOCKTYPE.OBJ
C:\USERS\ZANTA\DESKTOP\COLLEGE\C++\CLASSES\CLASSES\DEBUG\CLASSES.OBJ
^C:\USERS\ZANTA\DESKTOP\COLLEGE\C++\CLASSES\CLASSES\CLASSES.CPP
C:\USERS\ZANTA\DESKTOP\COLLEGE\C++\CLASSES\CLASSES\DEBUG\VC142.PDB
^C:\USERS\ZANTA\DESKTOP\COLLEGE\C++\CLASSES\CLASSES\CLOCKTYPE.CPP
C:\USERS\ZANTA\DESKTOP\COLLEGE\C++\CLASSES\CLASSES\DEBUG\VC142.PDB
