^E:\C++\DYNAMIC_MEMORY_ALLOCATION_BASICS\DYNAMIC_MEMORY_ALLOCATION_BASICS.CPP
E:\C++\DYNAMIC_MEMORY_ALLOCATION_BASICS\X64\DEBUG\VC142.PDB
E:\C++\DYNAMIC_MEMORY_ALLOCATION_BASICS\X64\DEBUG\VC142.IDB
E:\C++\DYNAMIC_MEMORY_ALLOCATION_BASICS\X64\DEBUG\DYNAMIC_MEMORY_ALLOCATION_BASICS.OBJ
^E:\C++\DYNAMIC_MEMORY_ALLOCATION_BASICS\XSANDOS.CPP
E:\C++\DYNAMIC_MEMORY_ALLOCATION_BASICS\X64\DEBUG\VC142.PDB
E:\C++\DYNAMIC_MEMORY_ALLOCATION_BASICS\X64\DEBUG\VC142.IDB
E:\C++\DYNAMIC_MEMORY_ALLOCATION_BASICS\X64\DEBUG\XSANDOS.OBJ
